{
	"$schema": "./node_modules/@biomejs/biome/configuration_schema.json",
	"organizeImports": {
		"enabled": true
	},
	"linter": {
		"enabled": true,
		"rules": {
			"recommended": true
		}
	},
	"files": {
		"ignore": ["**/dist"]
	}
}
